Extract Different Values • myrror
…
The user can then filter the table to focus on specific differences,
aggregate and summarize the table to understand general patterns, or use
the indexes to extract the rows from the original data frame.

For example:

extract_diff_table(gapminder, gapminder_var1, by=c('country', 'year')) |>
  group_by(diff, country) |>
  count()
#> # A tibble: 144 × 3
#> # Groups:   diff, country [144]
#>    diff            country         n
#>    <chr>           <chr>       <int>
#>  1 change_in_value Colombia       12
#>  2 change_in_value Italy           4
#>  3 value_to_na     Afghanistan     1
#>  4 value_to_na     Albania         1
#>  5 value_to_na     Algeria         1
#>  6 value_to_na     Angola          1
#>  7 value_to_na     Argentina       1
#>  8 value_to_na     Australia       1
#>  9 value_to_na     Austria         1
#> 10 value_to_na     Bahrain         1
#> # ℹ 134 more rows
…
